[
  {
    "model": "resource.resourcerole",
    "pk": 1,
    "fields": {
      "slug": "teacher-guide",
      "name": "Teacher guide"
    }
  },
  {
    "model": "resource.resourcerole",
    "pk": 2,
    "fields": {
      "slug": "lesson-plan",
      "name": "Lesson plan"
    }
  },
  {
    "model": "resource.resourcerole",
    "pk": 3,
    "fields": {
      "slug": "preparaton-guide",
      "name": "Preparation guide"
    }
  },
  {
    "model": "resource.resourcerole",
    "pk": 4,
    "fields": {
      "slug": "supplementary-material",
      "name": "Supplemantary material"
    }
  }
]
